2022-02-21 16:10:19,047 - Initializing Velocity, Calling init()...
2022-02-21 16:10:19,047 - Starting Apache Velocity v1.7 (compiled: 2010-11-19 12:14:37)
2022-02-21 16:10:19,047 - Default Properties File: org/apache/velocity/runtime/defaults/velocity.properties
2022-02-21 16:10:19,047 - Trying to use logger class org.apache.velocity.runtime.log.AvalonLogChute
2022-02-21 16:10:19,047 - Target log system for org.apache.velocity.runtime.log.AvalonLogChute is not available (java.lang.NoClassDefFoundError: org/apache/log/format/Formatter).  Falling back to next log system...
2022-02-21 16:10:19,047 - Trying to use logger class org.apache.velocity.runtime.log.Log4JLogChute
2022-02-21 16:10:19,047 - Using logger class org.apache.velocity.runtime.log.Log4JLogChute
2022-02-21 16:10:19,047 - ResourceLoader instantiated: org.apache.velocity.runtime.resource.loader.ClasspathResourceLoader
2022-02-21 16:10:19,047 - ResourceCache: initialized (class org.apache.velocity.runtime.resource.ResourceCacheImpl) with class java.util.Collections$SynchronizedMap cache map.
2022-02-21 16:10:19,048 - Loaded System Directive: org.apache.velocity.runtime.directive.Stop
2022-02-21 16:10:19,048 - Loaded System Directive: org.apache.velocity.runtime.directive.Define
2022-02-21 16:10:19,048 - Loaded System Directive: org.apache.velocity.runtime.directive.Break
2022-02-21 16:10:19,048 - Loaded System Directive: org.apache.velocity.runtime.directive.Evaluate
2022-02-21 16:10:19,048 - Loaded System Directive: org.apache.velocity.runtime.directive.Literal
2022-02-21 16:10:19,048 - Loaded System Directive: org.apache.velocity.runtime.directive.Macro
2022-02-21 16:10:19,048 - Loaded System Directive: org.apache.velocity.runtime.directive.Parse
2022-02-21 16:10:19,048 - Loaded System Directive: org.apache.velocity.runtime.directive.Include
2022-02-21 16:10:19,048 - Loaded System Directive: org.apache.velocity.runtime.directive.Foreach
2022-02-21 16:10:19,049 - Created '20' parsers.
2022-02-21 16:10:19,049 - Velocimacro : "velocimacro.library" is not set.  Trying default library: VM_global_library.vm
2022-02-21 16:10:19,049 - Could not load resource 'VM_global_library.vm' from ResourceLoader org.apache.velocity.runtime.resource.loader.ClasspathResourceLoader: ClasspathResourceLoader Error: cannot find resource VM_global_library.vm
2022-02-21 16:10:19,049 - Velocimacro : Default library not found.
2022-02-21 16:10:19,049 - Velocimacro : allowInline = true : VMs can be defined inline in templates
2022-02-21 16:10:19,049 - Velocimacro : allowInlineToOverride = false : VMs defined inline may NOT replace previous VM definitions
2022-02-21 16:10:19,049 - Velocimacro : allowInlineLocal = false : VMs defined inline will be global in scope if allowed.
2022-02-21 16:10:19,049 - Velocimacro : autoload off : VM system will not automatically reload global library macros
2022-02-21 16:10:19,050 - ResourceManager : found templates/generators/overviewSteps.vm with loader org.apache.velocity.runtime.resource.loader.ClasspathResourceLoader
2022-02-21 16:10:19,051 - ResourceManager : found /templates/headers.vm with loader org.apache.velocity.runtime.resource.loader.ClasspathResourceLoader
2022-02-21 16:10:19,051 - ResourceManager : found /templates/head.vm with loader org.apache.velocity.runtime.resource.loader.ClasspathResourceLoader
2022-02-21 16:10:19,052 - Velocimacro : added VM stringArray: source=/templates/macros/array.js.vm
2022-02-21 16:10:19,052 - Velocimacro : added VM numberArray: source=/templates/macros/array.js.vm
2022-02-21 16:10:19,052 - ResourceManager : found /templates/macros/array.js.vm with loader org.apache.velocity.runtime.resource.loader.ClasspathResourceLoader
2022-02-21 16:10:19,052 - Velocimacro : added VM includeBuildInfo: source=/templates/macros/page/buildinfo.vm
2022-02-21 16:10:19,052 - ResourceManager : found /templates/macros/page/buildinfo.vm with loader org.apache.velocity.runtime.resource.loader.ClasspathResourceLoader
2022-02-21 16:10:19,053 - Velocimacro : added VM includeClassifications: source=/templates/macros/page/classifications.vm
2022-02-21 16:10:19,053 - ResourceManager : found /templates/macros/page/classifications.vm with loader org.apache.velocity.runtime.resource.loader.ClasspathResourceLoader
2022-02-21 16:10:19,053 - Velocimacro : added VM includeLead: source=/templates/macros/page/lead.vm
2022-02-21 16:10:19,053 - ResourceManager : found /templates/macros/page/lead.vm with loader org.apache.velocity.runtime.resource.loader.ClasspathResourceLoader
2022-02-21 16:10:19,054 - Velocimacro : added VM includeNavigation: source=/templates/macros/page/navigation.vm
2022-02-21 16:10:19,054 - ResourceManager : found /templates/macros/page/navigation.vm with loader org.apache.velocity.runtime.resource.loader.ClasspathResourceLoader
2022-02-21 16:10:19,055 - Velocimacro : added VM includeReportInfo: source=/templates/macros/page/reportInfo.vm
2022-02-21 16:10:19,055 - ResourceManager : found /templates/macros/page/reportInfo.vm with loader org.apache.velocity.runtime.resource.loader.ClasspathResourceLoader
2022-02-21 16:10:19,055 - Velocimacro : added VM includeTitle: source=/templates/macros/page/title.vm
2022-02-21 16:10:19,055 - ResourceManager : found /templates/macros/page/title.vm with loader org.apache.velocity.runtime.resource.loader.ClasspathResourceLoader
2022-02-21 16:10:19,056 - Velocimacro : added VM includeExpandingButtons: source=/templates/macros/report/expandAllButtons.vm
2022-02-21 16:10:19,056 - ResourceManager : found /templates/macros/report/expandAllButtons.vm with loader org.apache.velocity.runtime.resource.loader.ClasspathResourceLoader
2022-02-21 16:10:19,057 - Velocimacro : added VM includeReportTable: source=/templates/macros/report/reportTable.vm
2022-02-21 16:10:19,057 - ResourceManager : found /templates/macros/report/reportTable.vm with loader org.apache.velocity.runtime.resource.loader.ClasspathResourceLoader
2022-02-21 16:10:19,057 - Velocimacro : added VM includeReportHeader: source=/templates/macros/report/reportHeader.vm
2022-02-21 16:10:19,057 - ResourceManager : found /templates/macros/report/reportHeader.vm with loader org.apache.velocity.runtime.resource.loader.ClasspathResourceLoader
2022-02-21 16:10:19,058 - Velocimacro : added VM includeStatsTable: source=/templates/macros/report/statsTable.vm
2022-02-21 16:10:19,059 - ResourceManager : found /templates/macros/report/statsTable.vm with loader org.apache.velocity.runtime.resource.loader.ClasspathResourceLoader
2022-02-21 16:10:19,059 - Velocimacro : added VM includeBrief: source=/templates/macros/json/brief.vm
2022-02-21 16:10:19,059 - ResourceManager : found /templates/macros/json/brief.vm with loader org.apache.velocity.runtime.resource.loader.ClasspathResourceLoader
2022-02-21 16:10:19,060 - Velocimacro : added VM includeDocString: source=/templates/macros/json/docstring.vm
2022-02-21 16:10:19,060 - ResourceManager : found /templates/macros/json/docstring.vm with loader org.apache.velocity.runtime.resource.loader.ClasspathResourceLoader
2022-02-21 16:10:19,060 - Velocimacro : added VM includeDuration: source=/templates/macros/json/duration.vm
2022-02-21 16:10:19,060 - ResourceManager : found /templates/macros/json/duration.vm with loader org.apache.velocity.runtime.resource.loader.ClasspathResourceLoader
2022-02-21 16:10:19,061 - Velocimacro : added VM includeElement: source=/templates/macros/json/element.vm
2022-02-21 16:10:19,061 - ResourceManager : found /templates/macros/json/element.vm with loader org.apache.velocity.runtime.resource.loader.ClasspathResourceLoader
2022-02-21 16:10:19,062 - Velocimacro : added VM includeEmbeddings: source=/templates/macros/json/embeddings.vm
2022-02-21 16:10:19,062 - Velocimacro : added VM includeHtmlEmbedding: source=/templates/macros/json/embeddings.vm
2022-02-21 16:10:19,062 - Velocimacro : added VM includeImageEmbedding: source=/templates/macros/json/embeddings.vm
2022-02-21 16:10:19,062 - Velocimacro : added VM includeImageReferenceEmbedding: source=/templates/macros/json/embeddings.vm
2022-02-21 16:10:19,063 - Velocimacro : added VM includeTextEmbedding: source=/templates/macros/json/embeddings.vm
2022-02-21 16:10:19,063 - Velocimacro : added VM includeUnknownEmbedding: source=/templates/macros/json/embeddings.vm
2022-02-21 16:10:19,063 - ResourceManager : found /templates/macros/json/embeddings.vm with loader org.apache.velocity.runtime.resource.loader.ClasspathResourceLoader
2022-02-21 16:10:19,064 - Velocimacro : added VM includeHooks: source=/templates/macros/json/hooks.vm
2022-02-21 16:10:19,064 - ResourceManager : found /templates/macros/json/hooks.vm with loader org.apache.velocity.runtime.resource.loader.ClasspathResourceLoader
2022-02-21 16:10:19,065 - Velocimacro : added VM includeOutput: source=/templates/macros/json/output.vm
2022-02-21 16:10:19,065 - ResourceManager : found /templates/macros/json/output.vm with loader org.apache.velocity.runtime.resource.loader.ClasspathResourceLoader
2022-02-21 16:10:19,066 - Velocimacro : added VM includeMessage: source=/templates/macros/json/message.vm
2022-02-21 16:10:19,066 - ResourceManager : found /templates/macros/json/message.vm with loader org.apache.velocity.runtime.resource.loader.ClasspathResourceLoader
2022-02-21 16:10:19,067 - Velocimacro : added VM includeSteps: source=/templates/macros/json/steps.vm
2022-02-21 16:10:19,067 - ResourceManager : found /templates/macros/json/steps.vm with loader org.apache.velocity.runtime.resource.loader.ClasspathResourceLoader
2022-02-21 16:10:19,067 - Velocimacro : added VM includeStepName: source=/templates/macros/json/stepName.vm
2022-02-21 16:10:19,067 - ResourceManager : found /templates/macros/json/stepName.vm with loader org.apache.velocity.runtime.resource.loader.ClasspathResourceLoader
2022-02-21 16:10:19,067 - Velocimacro : added VM includeTags: source=/templates/macros/json/tags.vm
2022-02-21 16:10:19,067 - ResourceManager : found /templates/macros/json/tags.vm with loader org.apache.velocity.runtime.resource.loader.ClasspathResourceLoader
2022-02-21 16:10:19,070 - ResourceManager : found /templates/footer.vm with loader org.apache.velocity.runtime.resource.loader.ClasspathResourceLoader
2022-02-21 16:10:19,071 - Log4JLogChute initialized using file 'target/velocity.log'
2022-02-21 16:10:19,071 - Initializing Velocity, Calling init()...
2022-02-21 16:10:19,072 - Starting Apache Velocity v1.7 (compiled: 2010-11-19 12:14:37)
2022-02-21 16:10:19,072 - Default Properties File: org/apache/velocity/runtime/defaults/velocity.properties
2022-02-21 16:10:19,072 - Trying to use logger class org.apache.velocity.runtime.log.AvalonLogChute
2022-02-21 16:10:19,072 - Target log system for org.apache.velocity.runtime.log.AvalonLogChute is not available (java.lang.NoClassDefFoundError: org/apache/log/format/Formatter).  Falling back to next log system...
2022-02-21 16:10:19,072 - Trying to use logger class org.apache.velocity.runtime.log.Log4JLogChute
2022-02-21 16:10:19,072 - Using logger class org.apache.velocity.runtime.log.Log4JLogChute
2022-02-21 16:10:19,072 - ResourceLoader instantiated: org.apache.velocity.runtime.resource.loader.ClasspathResourceLoader
2022-02-21 16:10:19,072 - ResourceCache: initialized (class org.apache.velocity.runtime.resource.ResourceCacheImpl) with class java.util.Collections$SynchronizedMap cache map.
2022-02-21 16:10:19,072 - Loaded System Directive: org.apache.velocity.runtime.directive.Stop
2022-02-21 16:10:19,072 - Loaded System Directive: org.apache.velocity.runtime.directive.Define
2022-02-21 16:10:19,072 - Loaded System Directive: org.apache.velocity.runtime.directive.Break
2022-02-21 16:10:19,072 - Loaded System Directive: org.apache.velocity.runtime.directive.Evaluate
2022-02-21 16:10:19,072 - Loaded System Directive: org.apache.velocity.runtime.directive.Literal
2022-02-21 16:10:19,072 - Loaded System Directive: org.apache.velocity.runtime.directive.Macro
2022-02-21 16:10:19,072 - Loaded System Directive: org.apache.velocity.runtime.directive.Parse
2022-02-21 16:10:19,073 - Loaded System Directive: org.apache.velocity.runtime.directive.Include
2022-02-21 16:10:19,073 - Loaded System Directive: org.apache.velocity.runtime.directive.Foreach
2022-02-21 16:10:19,073 - Created '20' parsers.
2022-02-21 16:10:19,073 - Velocimacro : "velocimacro.library" is not set.  Trying default library: VM_global_library.vm
2022-02-21 16:10:19,074 - Could not load resource 'VM_global_library.vm' from ResourceLoader org.apache.velocity.runtime.resource.loader.ClasspathResourceLoader: ClasspathResourceLoader Error: cannot find resource VM_global_library.vm
2022-02-21 16:10:19,074 - Velocimacro : Default library not found.
2022-02-21 16:10:19,074 - Velocimacro : allowInline = true : VMs can be defined inline in templates
2022-02-21 16:10:19,074 - Velocimacro : allowInlineToOverride = false : VMs defined inline may NOT replace previous VM definitions
2022-02-21 16:10:19,074 - Velocimacro : allowInlineLocal = false : VMs defined inline will be global in scope if allowed.
2022-02-21 16:10:19,074 - Velocimacro : autoload off : VM system will not automatically reload global library macros
2022-02-21 16:10:19,075 - ResourceManager : found templates/generators/overviewFailures.vm with loader org.apache.velocity.runtime.resource.loader.ClasspathResourceLoader
2022-02-21 16:10:19,075 - ResourceManager : found /templates/headers.vm with loader org.apache.velocity.runtime.resource.loader.ClasspathResourceLoader
2022-02-21 16:10:19,075 - ResourceManager : found /templates/head.vm with loader org.apache.velocity.runtime.resource.loader.ClasspathResourceLoader
2022-02-21 16:10:19,076 - Velocimacro : added VM stringArray: source=/templates/macros/array.js.vm
2022-02-21 16:10:19,076 - Velocimacro : added VM numberArray: source=/templates/macros/array.js.vm
2022-02-21 16:10:19,076 - ResourceManager : found /templates/macros/array.js.vm with loader org.apache.velocity.runtime.resource.loader.ClasspathResourceLoader
2022-02-21 16:10:19,076 - Velocimacro : added VM includeBuildInfo: source=/templates/macros/page/buildinfo.vm
2022-02-21 16:10:19,076 - ResourceManager : found /templates/macros/page/buildinfo.vm with loader org.apache.velocity.runtime.resource.loader.ClasspathResourceLoader
2022-02-21 16:10:19,077 - Velocimacro : added VM includeClassifications: source=/templates/macros/page/classifications.vm
2022-02-21 16:10:19,077 - ResourceManager : found /templates/macros/page/classifications.vm with loader org.apache.velocity.runtime.resource.loader.ClasspathResourceLoader
2022-02-21 16:10:19,077 - Velocimacro : added VM includeLead: source=/templates/macros/page/lead.vm
2022-02-21 16:10:19,077 - ResourceManager : found /templates/macros/page/lead.vm with loader org.apache.velocity.runtime.resource.loader.ClasspathResourceLoader
2022-02-21 16:10:19,077 - Velocimacro : added VM includeNavigation: source=/templates/macros/page/navigation.vm
2022-02-21 16:10:19,077 - ResourceManager : found /templates/macros/page/navigation.vm with loader org.apache.velocity.runtime.resource.loader.ClasspathResourceLoader
2022-02-21 16:10:19,078 - Velocimacro : added VM includeReportInfo: source=/templates/macros/page/reportInfo.vm
2022-02-21 16:10:19,078 - ResourceManager : found /templates/macros/page/reportInfo.vm with loader org.apache.velocity.runtime.resource.loader.ClasspathResourceLoader
2022-02-21 16:10:19,078 - Velocimacro : added VM includeTitle: source=/templates/macros/page/title.vm
2022-02-21 16:10:19,078 - ResourceManager : found /templates/macros/page/title.vm with loader org.apache.velocity.runtime.resource.loader.ClasspathResourceLoader
2022-02-21 16:10:19,079 - Velocimacro : added VM includeExpandingButtons: source=/templates/macros/report/expandAllButtons.vm
2022-02-21 16:10:19,079 - ResourceManager : found /templates/macros/report/expandAllButtons.vm with loader org.apache.velocity.runtime.resource.loader.ClasspathResourceLoader
2022-02-21 16:10:19,079 - Velocimacro : added VM includeReportTable: source=/templates/macros/report/reportTable.vm
2022-02-21 16:10:19,079 - ResourceManager : found /templates/macros/report/reportTable.vm with loader org.apache.velocity.runtime.resource.loader.ClasspathResourceLoader
2022-02-21 16:10:19,080 - Velocimacro : added VM includeReportHeader: source=/templates/macros/report/reportHeader.vm
2022-02-21 16:10:19,080 - ResourceManager : found /templates/macros/report/reportHeader.vm with loader org.apache.velocity.runtime.resource.loader.ClasspathResourceLoader
2022-02-21 16:10:19,081 - Velocimacro : added VM includeStatsTable: source=/templates/macros/report/statsTable.vm
2022-02-21 16:10:19,081 - ResourceManager : found /templates/macros/report/statsTable.vm with loader org.apache.velocity.runtime.resource.loader.ClasspathResourceLoader
2022-02-21 16:10:19,081 - Velocimacro : added VM includeBrief: source=/templates/macros/json/brief.vm
2022-02-21 16:10:19,081 - ResourceManager : found /templates/macros/json/brief.vm with loader org.apache.velocity.runtime.resource.loader.ClasspathResourceLoader
2022-02-21 16:10:19,082 - Velocimacro : added VM includeDocString: source=/templates/macros/json/docstring.vm
2022-02-21 16:10:19,082 - ResourceManager : found /templates/macros/json/docstring.vm with loader org.apache.velocity.runtime.resource.loader.ClasspathResourceLoader
2022-02-21 16:10:19,082 - Velocimacro : added VM includeDuration: source=/templates/macros/json/duration.vm
2022-02-21 16:10:19,082 - ResourceManager : found /templates/macros/json/duration.vm with loader org.apache.velocity.runtime.resource.loader.ClasspathResourceLoader
2022-02-21 16:10:19,083 - Velocimacro : added VM includeElement: source=/templates/macros/json/element.vm
2022-02-21 16:10:19,083 - ResourceManager : found /templates/macros/json/element.vm with loader org.apache.velocity.runtime.resource.loader.ClasspathResourceLoader
2022-02-21 16:10:19,085 - Velocimacro : added VM includeEmbeddings: source=/templates/macros/json/embeddings.vm
2022-02-21 16:10:19,085 - Velocimacro : added VM includeHtmlEmbedding: source=/templates/macros/json/embeddings.vm
2022-02-21 16:10:19,085 - Velocimacro : added VM includeImageEmbedding: source=/templates/macros/json/embeddings.vm
2022-02-21 16:10:19,085 - Velocimacro : added VM includeImageReferenceEmbedding: source=/templates/macros/json/embeddings.vm
2022-02-21 16:10:19,085 - Velocimacro : added VM includeTextEmbedding: source=/templates/macros/json/embeddings.vm
2022-02-21 16:10:19,085 - Velocimacro : added VM includeUnknownEmbedding: source=/templates/macros/json/embeddings.vm
2022-02-21 16:10:19,085 - ResourceManager : found /templates/macros/json/embeddings.vm with loader org.apache.velocity.runtime.resource.loader.ClasspathResourceLoader
2022-02-21 16:10:19,086 - Velocimacro : added VM includeHooks: source=/templates/macros/json/hooks.vm
2022-02-21 16:10:19,086 - ResourceManager : found /templates/macros/json/hooks.vm with loader org.apache.velocity.runtime.resource.loader.ClasspathResourceLoader
2022-02-21 16:10:19,087 - Velocimacro : added VM includeOutput: source=/templates/macros/json/output.vm
2022-02-21 16:10:19,087 - ResourceManager : found /templates/macros/json/output.vm with loader org.apache.velocity.runtime.resource.loader.ClasspathResourceLoader
2022-02-21 16:10:19,087 - Velocimacro : added VM includeMessage: source=/templates/macros/json/message.vm
2022-02-21 16:10:19,087 - ResourceManager : found /templates/macros/json/message.vm with loader org.apache.velocity.runtime.resource.loader.ClasspathResourceLoader
2022-02-21 16:10:19,088 - Velocimacro : added VM includeSteps: source=/templates/macros/json/steps.vm
2022-02-21 16:10:19,088 - ResourceManager : found /templates/macros/json/steps.vm with loader org.apache.velocity.runtime.resource.loader.ClasspathResourceLoader
2022-02-21 16:10:19,089 - Velocimacro : added VM includeStepName: source=/templates/macros/json/stepName.vm
2022-02-21 16:10:19,089 - ResourceManager : found /templates/macros/json/stepName.vm with loader org.apache.velocity.runtime.resource.loader.ClasspathResourceLoader
2022-02-21 16:10:19,089 - Velocimacro : added VM includeTags: source=/templates/macros/json/tags.vm
2022-02-21 16:10:19,089 - ResourceManager : found /templates/macros/json/tags.vm with loader org.apache.velocity.runtime.resource.loader.ClasspathResourceLoader
2022-02-21 16:10:19,090 - ResourceManager : found /templates/footer.vm with loader org.apache.velocity.runtime.resource.loader.ClasspathResourceLoader
